data = [
1  5.61000000e+02 2.30000000e+01 6.01000000e+02
2  5.49000000e+02 1.90000000e+01 6.00000000e+02
3  5.77000000e+02 2.00000000e+01 6.01000000e+02
4  5.32000000e+02 2.90000000e+01 6.01000000e+02
5  5.61000000e+02 2.60000000e+01 6.00000000e+02
6  5.74000000e+02 1.60000000e+01 6.01000000e+02
7  5.45000000e+02 2.60000000e+01 2.01000000e+02
8  5.59000000e+02 2.00000000e+01 6.01000000e+02
9  5.75000000e+02 3.40000000e+01 6.01000000e+02
10  5.63000000e+02 1.90000000e+01 6.01000000e+02
11  5.76000000e+02 2.00000000e+01 6.01000000e+02
12  5.45000000e+02 2.90000000e+01 5.96000000e+02
13  5.68000000e+02 1.70000000e+01 6.01000000e+02
14 